{
    "crops":[
        {"crop":"wheat","color":"brown"},
        {"crop":"mango","color":"yellow"},
        {"crop":"rice","color":"cyan"},
        {"crop":"coconut","color":"green"}
    ],
    "diseases":[
        {"disease":"test1","color":"red"},
        {"disease":"test2","color":"green"},
        {"disease":"test3","color":"yellow"}
    ]
}